<?xml version="1.0" encoding="UTF-8" standalone="no"?>
<svg
   inkscape:version="1.2.2 (b0a8486, 2022-12-01)"
   id="svg8"
   version="1.1"
   viewBox="0 0 4.2333334 4.2333334"
   height="16"
   width="16"
   sodipodi:docname="icon.svg"
   xmlns:inkscape="http://www.inkscape.org/namespaces/inkscape"
   xmlns:sodipodi="http://sodipodi.sourceforge.net/DTD/sodipodi-0.dtd"
   xmlns="http://www.w3.org/2000/svg"
   xmlns:svg="http://www.w3.org/2000/svg"
   xmlns:rdf="http://www.w3.org/1999/02/22-rdf-syntax-ns#"
   xmlns:cc="http://creativecommons.org/ns#"
   xmlns:dc="http://purl.org/dc/elements/1.1/">
  <defs
     id="defs2" />
  <sodipodi:namedview
     units="in"
     inkscape:window-maximized="1"
     inkscape:window-y="1"
     inkscape:window-x="1920"
     inkscape:window-height="1389"
     inkscape:window-width="2559"
     showgrid="false"
     inkscape:document-rotation="0"
     inkscape:current-layer="layer1"
     inkscape:document-units="mm"
     inkscape:cy="-6.8368474"
     inkscape:cx="15.257842"
     inkscape:zoom="11.993832"
     inkscape:pageshadow="2"
     inkscape:pageopacity="0"
     borderopacity="1.0"
     bordercolor="#666666"
     pagecolor="#6a6a6a"
     id="base"
     inkscape:showpageshadow="2"
     inkscape:pagecheckerboard="true"
     inkscape:deskcolor="#d1d1d1" />
  <metadata
     id="metadata5">
    <rdf:RDF>
      <cc:Work
         rdf:about="">
        <dc:format>image/svg+xml</dc:format>
        <dc:type
           rdf:resource="http://purl.org/dc/dcmitype/StillImage" />
      </cc:Work>
    </rdf:RDF>
  </metadata>
  <g
     id="layer1"
     inkscape:groupmode="layer"
     inkscape:label="Layer 1">
    <circle
       style="fill:#ff7200;stroke:#ff00ff;stroke-width:0.018;stop-color:#000000;fill-opacity:1"
       id="circle465"
       cx="1.9285316"
       cy="0.57594651"
       r="0.33124661" />
    <circle
       style="fill:#ff7200;stroke:#ff00ff;stroke-width:0.018;stop-color:#000000;fill-opacity:1"
       id="circle467"
       cx="2.3801749"
       cy="1.4905876"
       r="0.33124661" />
    <circle
       style="fill:#ff7200;stroke:#ff00ff;stroke-width:0.018;stop-color:#000000;fill-opacity:1"
       id="circle469"
       cx="1.5936038"
       cy="2.0532651"
       r="0.33124661" />
    <circle
       style="fill:#ff7200;stroke:#ff00ff;stroke-width:0.018;stop-color:#000000;fill-opacity:1"
       id="circle471"
       cx="2.2244115"
       cy="2.5596352"
       r="0.33124661" />
    <circle
       style="fill:#ff7200;stroke:#ff00ff;stroke-width:0.018;stop-color:#000000;fill-opacity:1"
       id="circle473"
       cx="2.8823955"
       cy="3.0346508"
       r="0.33124661" />
    <circle
       style="fill:#ff7200;stroke:#ff00ff;stroke-width:0.018;stop-color:#000000;fill-opacity:1"
       id="circle475"
       cx="1.6552731"
       cy="3.1227446"
       r="0.33124661" />
    <circle
       style="fill:#ff7200;stroke:#ff00ff;stroke-width:0.018;stop-color:#000000;fill-opacity:1"
       id="circle477"
       cx="0.57859027"
       cy="3.6157024"
       r="0.33124661" />
    <circle
       style="fill:#ff7200;stroke:#ff00ff;stroke-width:0.018;stop-color:#000000;fill-opacity:1"
       id="circle479"
       cx="1.3182449"
       cy="3.4225748"
       r="0.33124661" />
    <circle
       style="fill:#ff7200;stroke:#ff00ff;stroke-width:0.018;stop-color:#000000;fill-opacity:1"
       id="circle481"
       cx="1.7538992"
       cy="3.8067942"
       r="0.33124661" />
    <circle
       style="fill:#ff7200;stroke:#ff00ff;stroke-width:0.018;stop-color:#000000;fill-opacity:1"
       id="circle483"
       cx="2.424999"
       cy="3.4520133"
       r="0.33124661" />
    <circle
       style="fill:#ff7200;stroke:#ff00ff;stroke-width:0.018;stop-color:#000000;fill-opacity:1"
       id="circle485"
       cx="3.1684237"
       cy="3.7592113"
       r="0.33124661" />
    <circle
       style="fill:#ff7200;stroke:#ff00ff;stroke-width:0.018;stop-color:#000000;fill-opacity:1"
       id="circle487"
       cx="3.5209897"
       cy="3.5232105"
       r="0.33124661" />
    <circle
       style="fill:#ff7200;stroke:#ff00ff;stroke-width:0.018;stop-color:#000000;fill-opacity:1"
       id="path409"
       cx="3.4621155"
       cy="3.4323149"
       r="0.33124661" />
  </g>
</svg>
