<?xml version="1.0" encoding="UTF-8" standalone="no"?>
<svg
   inkscape:version="1.2.2 (b0a8486, 2022-12-01)"
   id="svg8"
   version="1.1"
   viewBox="0 0 67.733334 67.733334"
   height="256"
   width="256"
   sodipodi:docname="throwout-icon.svg"
   inkscape:export-filename="throwout-icon.png"
   inkscape:export-xdpi="96"
   inkscape:export-ydpi="96"
   xmlns:inkscape="http://www.inkscape.org/namespaces/inkscape"
   xmlns:sodipodi="http://sodipodi.sourceforge.net/DTD/sodipodi-0.dtd"
   xmlns:xlink="http://www.w3.org/1999/xlink"
   xmlns="http://www.w3.org/2000/svg"
   xmlns:svg="http://www.w3.org/2000/svg"
   xmlns:rdf="http://www.w3.org/1999/02/22-rdf-syntax-ns#"
   xmlns:cc="http://creativecommons.org/ns#"
   xmlns:dc="http://purl.org/dc/elements/1.1/">
  <defs
     id="defs2">
    <linearGradient
       inkscape:collect="always"
       id="linearGradient917">
      <stop
         style="stop-color:#8200ff;stop-opacity:1;"
         offset="0"
         id="stop913" />
      <stop
         style="stop-color:#a2004c;stop-opacity:1;"
         offset="1"
         id="stop915" />
    </linearGradient>
    <linearGradient
       inkscape:collect="always"
       id="linearGradient882">
      <stop
         style="stop-color:#ff9640;stop-opacity:1;"
         offset="0"
         id="stop878" />
      <stop
         style="stop-color:#f4872f;stop-opacity:1;"
         offset="0.24216773"
         id="stop888" />
      <stop
         style="stop-color:#bf651c;stop-opacity:1;"
         offset="0.72053123"
         id="stop886" />
      <stop
         style="stop-color:#8a3c00;stop-opacity:1;"
         offset="1"
         id="stop880" />
    </linearGradient>
    <radialGradient
       inkscape:collect="always"
       xlink:href="#linearGradient882"
       id="radialGradient884"
       cx="1.8751067"
       cy="0.57534283"
       fx="1.8751067"
       fy="0.57534283"
       r="0.34024662"
       gradientUnits="userSpaceOnUse"
       gradientTransform="matrix(0.12789094,24.569235,-25.383016,0.13212741,68.484755,2.4996331)" />
    <linearGradient
       inkscape:collect="always"
       xlink:href="#linearGradient917"
       id="linearGradient919"
       x1="1.9687477"
       y1="0.27862892"
       x2="1.9304477"
       y2="0.9440462"
       gradientUnits="userSpaceOnUse"
       gradientTransform="matrix(22.710156,0,0,22.710156,10.314884,36.878441)" />
    <radialGradient
       inkscape:collect="always"
       xlink:href="#linearGradient882"
       id="radialGradient1145"
       gradientUnits="userSpaceOnUse"
       gradientTransform="matrix(0.12789094,24.569235,-25.383016,0.13212741,45.429083,-37.906674)"
       cx="1.8751067"
       cy="0.57534283"
       fx="1.8751067"
       fy="0.57534283"
       r="0.34024662" />
    <linearGradient
       inkscape:collect="always"
       xlink:href="#linearGradient917"
       id="linearGradient1147"
       gradientUnits="userSpaceOnUse"
       gradientTransform="matrix(22.710156,0,0,22.710156,-12.740788,-3.527867)"
       x1="1.9687477"
       y1="0.27862892"
       x2="1.9304477"
       y2="0.9440462" />
    <radialGradient
       inkscape:collect="always"
       xlink:href="#linearGradient882"
       id="radialGradient1151"
       gradientUnits="userSpaceOnUse"
       gradientTransform="matrix(0.12789094,24.569235,-25.383016,0.13212741,54.141091,-20.873856)"
       cx="1.8751067"
       cy="0.57534283"
       fx="1.8751067"
       fy="0.57534283"
       r="0.34024662" />
    <linearGradient
       inkscape:collect="always"
       xlink:href="#linearGradient917"
       id="linearGradient1153"
       gradientUnits="userSpaceOnUse"
       gradientTransform="matrix(22.710156,0,0,22.710156,-4.0287801,13.504951)"
       x1="1.9687477"
       y1="0.27862892"
       x2="1.9304477"
       y2="0.9440462" />
    <radialGradient
       inkscape:collect="always"
       xlink:href="#linearGradient882"
       id="radialGradient1157"
       gradientUnits="userSpaceOnUse"
       gradientTransform="matrix(0.12789094,24.569235,-25.383016,0.13212741,38.507687,-12.90481)"
       cx="1.8751067"
       cy="0.57534283"
       fx="1.8751067"
       fy="0.57534283"
       r="0.34024662" />
    <linearGradient
       inkscape:collect="always"
       xlink:href="#linearGradient917"
       id="linearGradient1159"
       gradientUnits="userSpaceOnUse"
       gradientTransform="matrix(22.710156,0,0,22.710156,-19.662182,21.473997)"
       x1="1.9687477"
       y1="0.27862892"
       x2="1.9304477"
       y2="0.9440462" />
    <radialGradient
       inkscape:collect="always"
       xlink:href="#linearGradient882"
       id="radialGradient1163"
       gradientUnits="userSpaceOnUse"
       gradientTransform="matrix(0.12789094,24.569235,-25.383016,0.13212741,29.64566,5.1627328)"
       cx="1.8751067"
       cy="0.57534283"
       fx="1.8751067"
       fy="0.57534283"
       r="0.34024662" />
    <linearGradient
       inkscape:collect="always"
       xlink:href="#linearGradient917"
       id="linearGradient1165"
       gradientUnits="userSpaceOnUse"
       gradientTransform="matrix(22.710156,0,0,22.710156,-28.524211,39.541539)"
       x1="1.9687477"
       y1="0.27862892"
       x2="1.9304477"
       y2="0.9440462" />
    <radialGradient
       inkscape:collect="always"
       xlink:href="#linearGradient882"
       id="radialGradient1169"
       gradientUnits="userSpaceOnUse"
       gradientTransform="matrix(0.12789094,24.569235,-25.383016,0.13212741,57.073123,-10.55225)"
       cx="1.8751067"
       cy="0.57534283"
       fx="1.8751067"
       fy="0.57534283"
       r="0.34024662" />
    <linearGradient
       inkscape:collect="always"
       xlink:href="#linearGradient917"
       id="linearGradient1171"
       gradientUnits="userSpaceOnUse"
       gradientTransform="matrix(22.710156,0,0,22.710156,-1.0967488,23.826558)"
       x1="1.9687477"
       y1="0.27862892"
       x2="1.9304477"
       y2="0.9440462" />
    <radialGradient
       inkscape:collect="always"
       xlink:href="#linearGradient882"
       id="radialGradient1175"
       gradientUnits="userSpaceOnUse"
       gradientTransform="matrix(0.12789094,24.569235,-25.383016,0.13212741,43.360342,-2.767191)"
       cx="1.8751067"
       cy="0.57534283"
       fx="1.8751067"
       fy="0.57534283"
       r="0.34024662" />
    <linearGradient
       inkscape:collect="always"
       xlink:href="#linearGradient917"
       id="linearGradient1177"
       gradientUnits="userSpaceOnUse"
       gradientTransform="matrix(22.710156,0,0,22.710156,-14.80953,31.611616)"
       x1="1.9687477"
       y1="0.27862892"
       x2="1.9304477"
       y2="0.9440462" />
    <radialGradient
       inkscape:collect="always"
       xlink:href="#linearGradient882"
       id="radialGradient1181"
       gradientUnits="userSpaceOnUse"
       gradientTransform="matrix(0.12789094,24.569235,-25.383016,0.13212741,58.292441,10.686138)"
       cx="1.8751067"
       cy="0.57534283"
       fx="1.8751067"
       fy="0.57534283"
       r="0.34024662" />
    <linearGradient
       inkscape:collect="always"
       xlink:href="#linearGradient917"
       id="linearGradient1183"
       gradientUnits="userSpaceOnUse"
       gradientTransform="matrix(22.710156,0,0,22.710156,0.12256945,45.064945)"
       x1="1.9687477"
       y1="0.27862892"
       x2="1.9304477"
       y2="0.9440462" />
    <radialGradient
       inkscape:collect="always"
       xlink:href="#linearGradient882"
       id="radialGradient1187"
       gradientUnits="userSpaceOnUse"
       gradientTransform="matrix(0.12789094,24.569235,-25.383016,0.13212741,57.095519,0.46530371)"
       cx="1.8751067"
       cy="0.57534283"
       fx="1.8751067"
       fy="0.57534283"
       r="0.34024662" />
    <linearGradient
       inkscape:collect="always"
       xlink:href="#linearGradient917"
       id="linearGradient1189"
       gradientUnits="userSpaceOnUse"
       gradientTransform="matrix(22.710156,0,0,22.710156,-1.074353,34.84411)"
       x1="1.9687477"
       y1="0.27862892"
       x2="1.9304477"
       y2="0.9440462" />
    <radialGradient
       inkscape:collect="always"
       xlink:href="#linearGradient882"
       id="radialGradient1193"
       gradientUnits="userSpaceOnUse"
       gradientTransform="matrix(0.12789094,24.569235,-25.383016,0.13212741,37.455408,10.954514)"
       cx="1.8751067"
       cy="0.57534283"
       fx="1.8751067"
       fy="0.57534283"
       r="0.34024662" />
    <linearGradient
       inkscape:collect="always"
       xlink:href="#linearGradient917"
       id="linearGradient1195"
       gradientUnits="userSpaceOnUse"
       gradientTransform="matrix(22.710156,0,0,22.710156,-20.714462,45.333321)"
       x1="1.9687477"
       y1="0.27862892"
       x2="1.9304477"
       y2="0.9440462" />
    <radialGradient
       inkscape:collect="always"
       xlink:href="#linearGradient882"
       id="radialGradient1199"
       gradientUnits="userSpaceOnUse"
       gradientTransform="matrix(0.12789094,24.569235,-25.383016,0.13212741,25.018703,9.3040366)"
       cx="1.8751067"
       cy="0.57534283"
       fx="1.8751067"
       fy="0.57534283"
       r="0.34024662" />
    <linearGradient
       inkscape:collect="always"
       xlink:href="#linearGradient917"
       id="linearGradient1201"
       gradientUnits="userSpaceOnUse"
       gradientTransform="matrix(22.710156,0,0,22.710156,-33.151168,43.682844)"
       x1="1.9687477"
       y1="0.27862892"
       x2="1.9304477"
       y2="0.9440462" />
    <radialGradient
       inkscape:collect="always"
       xlink:href="#linearGradient882"
       id="radialGradient1205"
       gradientUnits="userSpaceOnUse"
       gradientTransform="matrix(0.12789094,24.569235,-25.383016,0.13212741,46.655112,7.2817236)"
       cx="1.8751067"
       cy="0.57534283"
       fx="1.8751067"
       fy="0.57534283"
       r="0.34024662" />
    <linearGradient
       inkscape:collect="always"
       xlink:href="#linearGradient917"
       id="linearGradient1207"
       gradientUnits="userSpaceOnUse"
       gradientTransform="matrix(22.710156,0,0,22.710156,-11.514759,41.66053)"
       x1="1.9687477"
       y1="0.27862892"
       x2="1.9304477"
       y2="0.9440462" />
    <radialGradient
       inkscape:collect="always"
       xlink:href="#linearGradient882"
       id="radialGradient1211"
       gradientUnits="userSpaceOnUse"
       gradientTransform="matrix(0.12789094,24.569235,-25.383016,0.13212741,71.41998,9.7080404)"
       cx="1.8751067"
       cy="0.57534283"
       fx="1.8751067"
       fy="0.57534283"
       r="0.34024662" />
    <linearGradient
       inkscape:collect="always"
       xlink:href="#linearGradient917"
       id="linearGradient1213"
       gradientUnits="userSpaceOnUse"
       gradientTransform="matrix(22.710156,0,0,22.710156,13.250109,44.086848)"
       x1="1.9687477"
       y1="0.27862892"
       x2="1.9304477"
       y2="0.9440462" />
  </defs>
  <sodipodi:namedview
     units="in"
     inkscape:window-maximized="1"
     inkscape:window-y="1"
     inkscape:window-x="1920"
     inkscape:window-height="1389"
     inkscape:window-width="2559"
     showgrid="false"
     inkscape:document-rotation="0"
     inkscape:current-layer="layer1"
     inkscape:document-units="mm"
     inkscape:cy="126.08955"
     inkscape:cx="178.733"
     inkscape:zoom="2.3554688"
     inkscape:pageshadow="2"
     inkscape:pageopacity="0"
     borderopacity="1.0"
     bordercolor="#666666"
     pagecolor="#6a6a6a"
     id="base"
     inkscape:showpageshadow="2"
     inkscape:pagecheckerboard="true"
     inkscape:deskcolor="#d1d1d1" />
  <metadata
     id="metadata5">
    <rdf:RDF>
      <cc:Work
         rdf:about="">
        <dc:format>image/svg+xml</dc:format>
        <dc:type
           rdf:resource="http://purl.org/dc/dcmitype/StillImage" />
      </cc:Work>
    </rdf:RDF>
  </metadata>
  <g
     id="layer1"
     inkscape:groupmode="layer"
     inkscape:label="Layer 1">
    <circle
       style="fill:url(#radialGradient1211);fill-opacity:1;stroke:url(#linearGradient1213);stroke-width:1.16744;stroke-dasharray:none;stop-color:#000000"
       id="circle1209"
       cx="57.047363"
       cy="57.166683"
       r="7.5226622" />
    <circle
       style="fill:url(#radialGradient884);fill-opacity:1;stroke:url(#linearGradient919);stroke-width:1.16744;stroke-dasharray:none;stop-color:#000000"
       id="circle465"
       cx="54.112137"
       cy="49.958275"
       r="7.5226622" />
    <circle
       style="fill:url(#radialGradient1145);fill-opacity:1;stroke:url(#linearGradient1147);stroke-width:1.16744;stroke-dasharray:none;stop-color:#000000"
       id="circle1143"
       cx="31.056467"
       cy="9.5519676"
       r="7.5226622" />
    <circle
       style="fill:url(#radialGradient1151);fill-opacity:1;stroke:url(#linearGradient1153);stroke-width:1.16744;stroke-dasharray:none;stop-color:#000000"
       id="circle1149"
       cx="39.768478"
       cy="26.584785"
       r="7.5226622" />
    <circle
       style="fill:url(#radialGradient1157);fill-opacity:1;stroke:url(#linearGradient1159);stroke-width:1.16744;stroke-dasharray:none;stop-color:#000000"
       id="circle1155"
       cx="24.135071"
       cy="34.553829"
       r="7.5226622" />
    <circle
       style="fill:url(#radialGradient1163);fill-opacity:1;stroke:url(#linearGradient1165);stroke-width:1.16744;stroke-dasharray:none;stop-color:#000000"
       id="circle1161"
       cx="15.273043"
       cy="52.621376"
       r="7.5226622" />
    <circle
       style="fill:url(#radialGradient1169);fill-opacity:1;stroke:url(#linearGradient1171);stroke-width:1.16744;stroke-dasharray:none;stop-color:#000000"
       id="circle1167"
       cx="42.700504"
       cy="36.906391"
       r="7.5226622" />
    <circle
       style="fill:url(#radialGradient1175);fill-opacity:1;stroke:url(#linearGradient1177);stroke-width:1.16744;stroke-dasharray:none;stop-color:#000000"
       id="circle1173"
       cx="28.987728"
       cy="44.691452"
       r="7.5226622" />
    <circle
       style="fill:url(#radialGradient1181);fill-opacity:1;stroke:url(#linearGradient1183);stroke-width:1.16744;stroke-dasharray:none;stop-color:#000000"
       id="circle1179"
       cx="43.919823"
       cy="58.144779"
       r="7.5226622" />
    <circle
       style="fill:url(#radialGradient1187);fill-opacity:1;stroke:url(#linearGradient1189);stroke-width:1.16744;stroke-dasharray:none;stop-color:#000000"
       id="circle1185"
       cx="42.7229"
       cy="47.923946"
       r="7.5226622" />
    <circle
       style="fill:url(#radialGradient1193);fill-opacity:1;stroke:url(#linearGradient1195);stroke-width:1.16744;stroke-dasharray:none;stop-color:#000000"
       id="circle1191"
       cx="23.08279"
       cy="58.413155"
       r="7.5226622" />
    <circle
       style="fill:url(#radialGradient1199);fill-opacity:1;stroke:url(#linearGradient1201);stroke-width:1.16744;stroke-dasharray:none;stop-color:#000000"
       id="circle1197"
       cx="10.646086"
       cy="56.762676"
       r="7.5226622" />
    <circle
       style="fill:url(#radialGradient1205);fill-opacity:1;stroke:url(#linearGradient1207);stroke-width:1.16744;stroke-dasharray:none;stop-color:#000000"
       id="circle1203"
       cx="32.282497"
       cy="54.74036"
       r="7.5226622" />
  </g>
</svg>
